%YAML 1.1
%TAG !u! tag:unity3d.com,2011:
--- !u!1045 &1
EditorBuildSettings:
  m_ObjectHideFlags: 0
  serializedVersion: 2
  m_Scenes:
  - enabled: 1
    path: Assets/Scenes/Level1.unity
    guid: 9fc0d4010bbf28b4594072e72b8655ab
  - enabled: 1
    path: Assets/Scenes/Level2.unity
    guid: 671be9e03c3521d4ebcc06139669dcc7
  - enabled: 1
    path: Assets/Scenes/Level3.unity
    guid: f4c9f5a081d67884faef5dc3251e0f51
  - enabled: 1
    path: Assets/Scenes/Level4.unity
    guid: 05aba28c6b0c6004499bca245fa10c34
  - enabled: 1
    path: Assets/Scenes/Level5.unity
    guid: 6be9c34f93d7aba4ca456b831ba45dda
  m_configObjects: {}
